{
  "response": {
    "status": "ok",
    "userTier": "developer",
    "total": 59609,
    "startIndex": 1,
    "pageSize": 10,
    "currentPage": 1,
    "pages": 5961,
    "orderBy": "newest",
    "results": [
      {
        "id": "technology/2026/mar/21/kaiser-permanente-therapists-ai-strike",
        "type": "article",
        "sectionId": "technology",
        "sectionName": "Technology",
        "webPublicationDate": "2026-03-21T17:00:57Z",
        "webTitle": "‘Thank God they’re still alive’: Kaiser therapists claim its new screening system puts patients at higher risk by delaying their care",
        "webUrl": "https://www.theguardian.com/technology/2026/mar/21/kaiser-permanente-therapists-ai-strike",
        "apiUrl": "https://content.guardianapis.com/technology/2026/mar/21/kaiser-permanente-therapists-ai-strike",
        "isHosted": false,
        "pillarId": "pillar/news",
        "pillarName": "News"
      },
      {
        "id": "technology/2026/mar/21/fbi-mass-surveillance-data-artificial-intelligence",
        "type": "article",
        "sectionId": "technology",
        "sectionName": "Technology",
        "webPublicationDate": "2026-03-21T14:00:53Z",
        "webTitle": "How the FBI can conduct mass surveillance – even without AI ",
        "webUrl": "https://www.theguardian.com/technology/2026/mar/21/fbi-mass-surveillance-data-artificial-intelligence",
        "apiUrl": "https://content.guardianapis.com/technology/2026/mar/21/fbi-mass-surveillance-data-artificial-intelligence",
        "isHosted": false,
        "pillarId": "pillar/news",
        "pillarName": "News"
      },
      {
        "id": "technology/2026/mar/20/elon-musk-twitter-investors-lawsuit",
        "type": "article",
        "sectionId": "technology",
        "sectionName": "Technology",
        "webPublicationDate": "2026-03-21T00:54:40Z",
        "webTitle": "Musk responsible for Twitter investors’ stock dropping when he bought company, jury rules",
        "webUrl": "https://www.theguardian.com/technology/2026/mar/20/elon-musk-twitter-investors-lawsuit",
        "apiUrl": "https://content.guardianapis.com/technology/2026/mar/20/elon-musk-twitter-investors-lawsuit",
        "isHosted": false,
        "pillarId": "pillar/news",
        "pillarName": "News"
      },
      {
        "id": "technology/2026/mar/20/mediahuis-suspends-senior-journalist-over-ai-generated-quotes",
        "type": "article",
        "sectionId": "technology",
        "sectionName": "Technology",
        "webPublicationDate": "2026-03-20T16:13:08Z",
        "webTitle": "Senior European journalist suspended over AI-generated quotes",
        "webUrl": "https://www.theguardian.com/technology/2026/mar/20/mediahuis-suspends-senior-journalist-over-ai-generated-quotes",
        "apiUrl": "https://content.guardianapis.com/technology/2026/mar/20/mediahuis-suspends-senior-journalist-over-ai-generated-quotes",
        "isHosted": false,
        "pillarId": "pillar/news",
        "pillarName": "News"
      },
      {
        "id": "technology/2026/mar/21/atlassian-cuts-layoffs-staff-now-looking-for-work-ai",
        "type": "article",
        "sectionId": "technology",
        "sectionName": "Technology",
        "webPublicationDate": "2026-03-20T14:00:27Z",
        "webTitle": "First came the AI ‘teammates’, then the layoffs: the new reality for Atlassian staff now looking for work",
        "webUrl": "https://www.theguardian.com/technology/2026/mar/21/atlassian-cuts-layoffs-staff-now-looking-for-work-ai",
        "apiUrl": "https://content.guardianapis.com/technology/2026/mar/21/atlassian-cuts-layoffs-staff-now-looking-for-work-ai",
        "isHosted": false,
        "pillarId": "pillar/news",
        "pillarName": "News"
      },
      {
        "id": "technology/2026/mar/20/fire-experts-losing-sleep-over-growing-hazard-of-lithium-ion-batteries",
        "type": "article",
        "sectionId": "technology",
        "sectionName": "Technology",
        "webPublicationDate": "2026-03-20T11:11:50Z",
        "webTitle": "Fire experts ‘kept awake’ over growing hazard of lithium-ion batteries",
        "webUrl": "https://www.theguardian.com/technology/2026/mar/20/fire-experts-losing-sleep-over-growing-hazard-of-lithium-ion-batteries",
        "apiUrl": "https://content.guardianapis.com/technology/2026/mar/20/fire-experts-losing-sleep-over-growing-hazard-of-lithium-ion-batteries",
        "isHosted": false,
        "pillarId": "pillar/news",
        "pillarName": "News"
      },
      {
        "id": "technology/2026/mar/19/essex-police-pause-facial-recognition-camera-use-study-racial-bias",
        "type": "article",
        "sectionId": "technology",
        "sectionName": "Technology",
        "webPublicationDate": "2026-03-20T10:52:18Z",
        "webTitle": "Essex police pause facial recognition camera use after study finds racial bias",
        "webUrl": "https://www.theguardian.com/technology/2026/mar/19/essex-police-pause-facial-recognition-camera-use-study-racial-bias",
        "apiUrl": "https://content.guardianapis.com/technology/2026/mar/19/essex-police-pause-facial-recognition-camera-use-study-racial-bias",
        "isHosted": false,
        "pillarId": "pillar/news",
        "pillarName": "News"
      },
      {
        "id": "technology/2026/mar/20/meta-ai-agents-instruction-causes-large-sensitive-data-leak-to-employees",
        "type": "article",
        "sectionId": "technology",
        "sectionName": "Technology",
        "webPublicationDate": "2026-03-20T06:00:13Z",
        "webTitle": "Meta AI agent’s instruction causes large sensitive data leak to employees",
        "webUrl": "https://www.theguardian.com/technology/2026/mar/20/meta-ai-agents-instruction-causes-large-sensitive-data-leak-to-employees",
        "apiUrl": "https://content.guardianapis.com/technology/2026/mar/20/meta-ai-agents-instruction-causes-large-sensitive-data-leak-to-employees",
        "isHosted": false,
        "pillarId": "pillar/news",
        "pillarName": "News"
      },
      {
        "id": "technology/2026/mar/19/cryptocurrency-firms-losses-illinois-primaries",
        "type": "article",
        "sectionId": "technology",
        "sectionName": "Technology",
        "webPublicationDate": "2026-03-19T18:46:23Z",
        "webTitle": "Cryptocurrency firms suffer heavy losses in Illinois primaries after spending big",
        "webUrl": "https://www.theguardian.com/technology/2026/mar/19/cryptocurrency-firms-losses-illinois-primaries",
        "apiUrl": "https://content.guardianapis.com/technology/2026/mar/19/cryptocurrency-firms-losses-illinois-primaries",
        "isHosted": false,
        "pillarId": "pillar/news",
        "pillarName": "News"
      },
      {
        "id": "technology/2026/mar/19/lack-of-funding-is-stifling-scientific-research",
        "type": "article",
        "sectionId": "technology",
        "sectionName": "Technology",
        "webPublicationDate": "2026-03-19T18:04:58Z",
        "webTitle": "Lack of funding is stifling scientific research | Letter",
        "webUrl": "https://www.theguardian.com/technology/2026/mar/19/lack-of-funding-is-stifling-scientific-research",
        "apiUrl": "https://content.guardianapis.com/technology/2026/mar/19/lack-of-funding-is-stifling-scientific-research",
        "isHosted": false,
        "pillarId": "pillar/news",
        "pillarName": "News"
      }
    ]
  }
}
